\relax 
\@writefile{toc}{\contentsline {section}{\numberline {1}Configuration}{2}}
\@writefile{lot}{\contentsline {table}{\numberline {1}{\ignorespaces The number of variables for the set of test problems.\relax }}{2}}
\providecommand*\caption@xref[2]{\@setref\relax\@undefined{#1}}
\newlabel{variables_configuration}{{1}{2}}
\@writefile{toc}{\contentsline {section}{\numberline {2}Test Problems}{3}}
\@writefile{toc}{\contentsline {subsection}{\numberline {2.1}Biobjective Problems}{3}}
\@writefile{toc}{\contentsline {subsubsection}{\numberline {2.1.1}ZDT1}{3}}
\@writefile{toc}{\contentsline {paragraph}{IBEA}{3}}
\@writefile{toc}{\contentsline {paragraph}{MOEA/D}{3}}
\@writefile{toc}{\contentsline {paragraph}{NSGA-II}{4}}
\@writefile{toc}{\contentsline {paragraph}{NSGA-III}{4}}
\@writefile{toc}{\contentsline {paragraph}{SMS-EMOA}{5}}
\@writefile{toc}{\contentsline {paragraph}{SPEA II}{6}}
\@writefile{toc}{\contentsline {subsubsection}{\numberline {2.1.2}ZDT2}{6}}
\@writefile{toc}{\contentsline {paragraph}{IBEA}{6}}
\@writefile{toc}{\contentsline {paragraph}{MOEA/D}{7}}
\@writefile{toc}{\contentsline {paragraph}{NSGA-II}{7}}
\@writefile{toc}{\contentsline {paragraph}{NSGA-III}{8}}
\@writefile{toc}{\contentsline {paragraph}{SMS-EMOA}{8}}
\@writefile{toc}{\contentsline {paragraph}{SPEA II}{9}}
\@writefile{toc}{\contentsline {subsubsection}{\numberline {2.1.3}ZDT3}{9}}
\@writefile{toc}{\contentsline {paragraph}{IBEA}{9}}
\@writefile{toc}{\contentsline {paragraph}{MOEAD/D}{10}}
\@writefile{toc}{\contentsline {paragraph}{NSGA-II}{10}}
\@writefile{toc}{\contentsline {paragraph}{NSGA-III}{11}}
\@writefile{toc}{\contentsline {paragraph}{SMS-EMOA}{11}}
\@writefile{toc}{\contentsline {paragraph}{SPEA II}{12}}
\@writefile{toc}{\contentsline {subsubsection}{\numberline {2.1.4}ZDT4}{13}}
\@writefile{toc}{\contentsline {paragraph}{IBEA}{13}}
\@writefile{toc}{\contentsline {paragraph}{MOEA/D}{13}}
\@writefile{toc}{\contentsline {paragraph}{NSGA-II}{14}}
\@writefile{toc}{\contentsline {paragraph}{NSGA-III}{15}}
\@writefile{toc}{\contentsline {paragraph}{SMS-EMOA}{15}}
\@writefile{toc}{\contentsline {paragraph}{SPEA II}{16}}
\@writefile{toc}{\contentsline {subsubsection}{\numberline {2.1.5}ZDT6}{16}}
\@writefile{toc}{\contentsline {paragraph}{IBEA}{16}}
\@writefile{toc}{\contentsline {paragraph}{MOEA/D}{17}}
\@writefile{toc}{\contentsline {paragraph}{NSGA-II}{17}}
\@writefile{toc}{\contentsline {paragraph}{NSGA-III}{18}}
\@writefile{toc}{\contentsline {paragraph}{SMS-EMOA}{18}}
\@writefile{toc}{\contentsline {paragraph}{SPEA II}{19}}
\@writefile{lot}{\contentsline {table}{\numberline {2}{\ignorespaces A comparison of HV values for a set of biobjective problems\relax }}{20}}
\newlabel{biobjective_hypervolume}{{2}{20}}
\@writefile{lot}{\contentsline {table}{\numberline {3}{\ignorespaces A comparison of IGD values for a set of bi-objective problems\relax }}{21}}
\newlabel{biobjective_igd}{{3}{21}}
\@writefile{toc}{\contentsline {subsection}{\numberline {2.2}Three Objective Problems}{22}}
\@writefile{toc}{\contentsline {subsubsection}{\numberline {2.2.1}DTLZ1}{22}}
\@writefile{toc}{\contentsline {paragraph}{IBEA}{22}}
\@writefile{toc}{\contentsline {paragraph}{MOEA/D}{22}}
\@writefile{toc}{\contentsline {paragraph}{NSGA-II}{22}}
\@writefile{toc}{\contentsline {paragraph}{NSGA-III}{23}}
\@writefile{toc}{\contentsline {paragraph}{SMS-EMOA}{23}}
\@writefile{toc}{\contentsline {paragraph}{SPEA-II}{24}}
\@writefile{toc}{\contentsline {subsubsection}{\numberline {2.2.2}DTLZ2}{24}}
\@writefile{toc}{\contentsline {paragraph}{IBEA}{24}}
\@writefile{toc}{\contentsline {paragraph}{MOEA/D}{25}}
\@writefile{toc}{\contentsline {paragraph}{NSGA-II}{25}}
\@writefile{toc}{\contentsline {paragraph}{NSGA-III}{26}}
\@writefile{toc}{\contentsline {paragraph}{SMS-EMOA}{26}}
\@writefile{toc}{\contentsline {paragraph}{SPEA-II}{27}}
\@writefile{toc}{\contentsline {subsubsection}{\numberline {2.2.3}DTLZ3}{27}}
\@writefile{toc}{\contentsline {paragraph}{IBEA}{27}}
\@writefile{toc}{\contentsline {paragraph}{MOEA/D}{28}}
\@writefile{toc}{\contentsline {paragraph}{NSGA-II}{28}}
\@writefile{toc}{\contentsline {paragraph}{NSGA-III}{29}}
\@writefile{toc}{\contentsline {paragraph}{SMS-EMOA}{29}}
\@writefile{toc}{\contentsline {paragraph}{SPEA-II}{30}}
\@writefile{toc}{\contentsline {subsubsection}{\numberline {2.2.4}DTLZ4}{30}}
\@writefile{toc}{\contentsline {paragraph}{IBEA}{30}}
\@writefile{toc}{\contentsline {paragraph}{MOEA/D}{31}}
\@writefile{toc}{\contentsline {paragraph}{NSGA-II}{31}}
\@writefile{toc}{\contentsline {paragraph}{NSGA-III}{32}}
\@writefile{toc}{\contentsline {paragraph}{SMS-EMOA}{33}}
\@writefile{toc}{\contentsline {paragraph}{SPEA-II}{34}}
\@writefile{toc}{\contentsline {subsubsection}{\numberline {2.2.5}DTLZ5}{34}}
\@writefile{toc}{\contentsline {paragraph}{IBEA}{34}}
\@writefile{toc}{\contentsline {paragraph}{MOEA/D}{34}}
\@writefile{toc}{\contentsline {paragraph}{NSGA-II}{35}}
\@writefile{toc}{\contentsline {paragraph}{NSGA-III}{35}}
\@writefile{toc}{\contentsline {paragraph}{SMS-EMOA}{36}}
\@writefile{toc}{\contentsline {paragraph}{SPEA-II}{36}}
\@writefile{toc}{\contentsline {subsubsection}{\numberline {2.2.6}DTLZ6}{37}}
\@writefile{toc}{\contentsline {paragraph}{IBEA}{37}}
\@writefile{toc}{\contentsline {paragraph}{MOEA/D}{37}}
\@writefile{toc}{\contentsline {paragraph}{NSGA-II}{38}}
\@writefile{toc}{\contentsline {paragraph}{NSGA-III}{38}}
\@writefile{toc}{\contentsline {paragraph}{SMS-EMOA}{39}}
\@writefile{toc}{\contentsline {paragraph}{SPEA-II}{39}}
\@writefile{toc}{\contentsline {subsubsection}{\numberline {2.2.7}DTLZ7}{40}}
\@writefile{toc}{\contentsline {paragraph}{IBEA}{40}}
\@writefile{toc}{\contentsline {paragraph}{MOEA/D}{40}}
\@writefile{toc}{\contentsline {paragraph}{NSGA-II}{41}}
\@writefile{toc}{\contentsline {paragraph}{NSGA-III}{42}}
\@writefile{toc}{\contentsline {paragraph}{SMS-EMOA}{42}}
\@writefile{toc}{\contentsline {paragraph}{SPEA-II}{43}}
\@writefile{toc}{\contentsline {subsubsection}{\numberline {2.2.8}WFG1}{43}}
\@writefile{toc}{\contentsline {paragraph}{IBEA}{43}}
\@writefile{toc}{\contentsline {paragraph}{MOEA/D}{44}}
\@writefile{toc}{\contentsline {paragraph}{NSGA-II}{44}}
\@writefile{toc}{\contentsline {paragraph}{NSGA-III}{45}}
\@writefile{toc}{\contentsline {paragraph}{SMS-EMOA}{45}}
\@writefile{toc}{\contentsline {paragraph}{SPEA-II}{46}}
\@writefile{toc}{\contentsline {subsubsection}{\numberline {2.2.9}WFG2}{46}}
\@writefile{toc}{\contentsline {paragraph}{IBEA}{46}}
\@writefile{toc}{\contentsline {paragraph}{MOEA/D}{47}}
\@writefile{toc}{\contentsline {paragraph}{NSGA-II}{47}}
\@writefile{toc}{\contentsline {paragraph}{NSGA-III}{48}}
\@writefile{toc}{\contentsline {paragraph}{SMS-EMOA}{48}}
\@writefile{toc}{\contentsline {paragraph}{SPEA-II}{49}}
\@writefile{toc}{\contentsline {subsubsection}{\numberline {2.2.10}WFG3}{50}}
\@writefile{toc}{\contentsline {paragraph}{IBEA}{50}}
\@writefile{toc}{\contentsline {paragraph}{MOEA/D}{50}}
\@writefile{toc}{\contentsline {paragraph}{NSGA-II}{51}}
\@writefile{toc}{\contentsline {paragraph}{NSGA-III}{51}}
\@writefile{toc}{\contentsline {paragraph}{SMS-EMOA}{52}}
\@writefile{toc}{\contentsline {paragraph}{SPEA-II}{52}}
\@writefile{toc}{\contentsline {subsubsection}{\numberline {2.2.11}WFG4}{53}}
\@writefile{toc}{\contentsline {paragraph}{IBEA}{53}}
\@writefile{toc}{\contentsline {paragraph}{MOEA/D}{53}}
\@writefile{toc}{\contentsline {paragraph}{NSGA-II}{53}}
\@writefile{toc}{\contentsline {paragraph}{NSGA-III}{54}}
\@writefile{toc}{\contentsline {paragraph}{SMS-EMOA}{54}}
\@writefile{toc}{\contentsline {paragraph}{SPEA-II}{55}}
\@writefile{toc}{\contentsline {subsubsection}{\numberline {2.2.12}WFG5}{55}}
\@writefile{toc}{\contentsline {paragraph}{IBEA}{55}}
\@writefile{toc}{\contentsline {paragraph}{MOEA/D}{56}}
\@writefile{toc}{\contentsline {paragraph}{NSGA-II}{56}}
\@writefile{toc}{\contentsline {paragraph}{NSGA-III}{57}}
\@writefile{toc}{\contentsline {paragraph}{SMS-EMOA}{57}}
\@writefile{toc}{\contentsline {paragraph}{SPEA-II}{58}}
\@writefile{toc}{\contentsline {subsubsection}{\numberline {2.2.13}WFG6}{58}}
\@writefile{toc}{\contentsline {paragraph}{IBEA}{58}}
\@writefile{toc}{\contentsline {paragraph}{MOEA/D}{59}}
\@writefile{toc}{\contentsline {paragraph}{NSGA-II}{59}}
\@writefile{toc}{\contentsline {paragraph}{NSGA-III}{60}}
\@writefile{toc}{\contentsline {paragraph}{SMS-EMOA}{60}}
\@writefile{toc}{\contentsline {paragraph}{SPEA-II}{61}}
\@writefile{toc}{\contentsline {subsubsection}{\numberline {2.2.14}WFG7}{61}}
\@writefile{toc}{\contentsline {paragraph}{IBEA}{61}}
\@writefile{toc}{\contentsline {paragraph}{MOEA/D}{62}}
\@writefile{toc}{\contentsline {paragraph}{NSGA-II}{62}}
\@writefile{toc}{\contentsline {paragraph}{NSGA-III}{63}}
\@writefile{toc}{\contentsline {paragraph}{SMS-EMOA}{63}}
\@writefile{toc}{\contentsline {paragraph}{SPEA-II}{64}}
\@writefile{toc}{\contentsline {subsubsection}{\numberline {2.2.15}WFG8}{64}}
\@writefile{toc}{\contentsline {paragraph}{IBEA}{64}}
\@writefile{toc}{\contentsline {paragraph}{MOEA/D}{65}}
\@writefile{toc}{\contentsline {paragraph}{NSGA-II}{65}}
\@writefile{toc}{\contentsline {paragraph}{NSGA-III}{66}}
\@writefile{toc}{\contentsline {paragraph}{SMS-EMOA}{66}}
\@writefile{toc}{\contentsline {paragraph}{SPEA-II}{67}}
\@writefile{toc}{\contentsline {subsubsection}{\numberline {2.2.16}WFG9}{67}}
\@writefile{toc}{\contentsline {paragraph}{IBEA}{67}}
\@writefile{toc}{\contentsline {paragraph}{MOEA/D}{68}}
\@writefile{toc}{\contentsline {paragraph}{NSGA-II}{68}}
\@writefile{toc}{\contentsline {paragraph}{NSGA-III}{69}}
\@writefile{toc}{\contentsline {paragraph}{SMS-EMOA}{69}}
\@writefile{toc}{\contentsline {paragraph}{SPEA-II}{70}}
\@writefile{lot}{\contentsline {table}{\numberline {4}{\ignorespaces A comparison of HV values for a set of three objective problems\relax }}{72}}
\newlabel{triobjective_hypervolume}{{4}{72}}
\@writefile{lot}{\contentsline {table}{\numberline {5}{\ignorespaces A comparison of IGD values for a set of three objective problems\relax }}{73}}
\newlabel{triobjective_igd}{{5}{73}}
\@writefile{toc}{\contentsline {section}{\numberline {3}Conclusion}{74}}
